ECE 201/Finite State Machines/Lab11.1/simulation/qsim/part1.msim.vcd
$comment
	File created using the following command:
		vcd file part1.msim.vcd -direction
$end
$date
	Wed Nov 20 23:04:54 2019
$end
$version
	ModelSim Version 10.5b
$end
$timescale
	1ps
$end

$scope module part1_vhd_vec_tst $end
$var wire 1 ! clk $end
$var wire 1 " reset $end
$var wire 1 # w $end
$var wire 1 $ y0 $end
$var wire 1 % y1 $end
$var wire 1 & z $end

$scope module i1 $end
$var wire 1 ' gnd $end
$var wire 1 ( vcc $end
$var wire 1 ) unknown $end
$var wire 1 * devoe $end
$var wire 1 + devclrn $end
$var wire 1 , devpor $end
$var wire 1 - ww_devoe $end
$var wire 1 . ww_devclrn $end
$var wire 1 / ww_devpor $end
$var wire 1 0 ww_w $end
$var wire 1 1 ww_clk $end
$var wire 1 2 ww_reset $end
$var wire 1 3 ww_z $end
$var wire 1 4 ww_y1 $end
$var wire 1 5 ww_y0 $end
$var wire 1 6 \~QUARTUS_CREATED_ADC1~_CHSEL_bus\ [4] $end
$var wire 1 7 \~QUARTUS_CREATED_ADC1~_CHSEL_bus\ [3] $end
$var wire 1 8 \~QUARTUS_CREATED_ADC1~_CHSEL_bus\ [2] $end
$var wire 1 9 \~QUARTUS_CREATED_ADC1~_CHSEL_bus\ [1] $end
$var wire 1 : \~QUARTUS_CREATED_ADC1~_CHSEL_bus\ [0] $end
$var wire 1 ; \~QUARTUS_CREATED_ADC2~_CHSEL_bus\ [4] $end
$var wire 1 < \~QUARTUS_CREATED_ADC2~_CHSEL_bus\ [3] $end
$var wire 1 = \~QUARTUS_CREATED_ADC2~_CHSEL_bus\ [2] $end
$var wire 1 > \~QUARTUS_CREATED_ADC2~_CHSEL_bus\ [1] $end
$var wire 1 ? \~QUARTUS_CREATED_ADC2~_CHSEL_bus\ [0] $end
$var wire 1 @ \~QUARTUS_CREATED_GND~I_combout\ $end
$var wire 1 A \~QUARTUS_CREATED_UNVM~~busy\ $end
$var wire 1 B \~QUARTUS_CREATED_ADC1~~eoc\ $end
$var wire 1 C \~QUARTUS_CREATED_ADC2~~eoc\ $end
$var wire 1 D \z~output_o\ $end
$var wire 1 E \y1~output_o\ $end
$var wire 1 F \y0~output_o\ $end
$var wire 1 G \clk~input_o\ $end
$var wire 1 H \w~input_o\ $end
$var wire 1 I \reset~input_o\ $end
$var wire 1 J \dff1|QaBar~1_combout\ $end
$var wire 1 K \dff1|QaBar~3_combout\ $end
$var wire 1 L \dff1|QaBar~_emulated_q\ $end
$var wire 1 M \dff0|QaBar~1_combout\ $end
$var wire 1 N \dff0|QaBar~3_combout\ $end
$var wire 1 O \dff0|QaBar~_emulated_q\ $end
$var wire 1 P \dff0|Qa~q\ $end
$var wire 1 Q \dff1|Qa~q\ $end
$var wire 1 R D [1] $end
$var wire 1 S D [0] $end
$var wire 1 T Qb [1] $end
$var wire 1 U Qb [0] $end
$var wire 1 V Q [1] $end
$var wire 1 W Q [0] $end
$var wire 1 X \ALT_INV_reset~input_o\ $end
$upscope $end
$upscope $end
$enddefinitions $end
#0
$dumpvars
0!
0"
0#
0$
0%
0&
0'
1(
x)
1*
1+
1,
1-
1.
1/
00
01
02
03
04
05
0@
zA
zB
zC
0D
0E
0F
0G
0H
0I
xJ
xK
0L
xM
xN
0O
0P
0Q
1X
0R
0S
xT
xU
0V
0W
06
07
08
09
0:
0;
0<
0=
0>
0?
$end
#40000
1!
11
1G
xL
xO
#80000
0!
1#
01
10
1H
0G
xS
#120000
1!
11
1G
xP
xW
xF
xR
x5
x$
#160000
0!
01
0G
#200000
1!
11
1G
xQ
xV
xD
xE
x3
x4
x&
x%
#220000
0#
00
0H
0S
0R
#240000
0!
01
0G
#280000
1!
11
1G
0P
0Q
0V
0W
0F
0D
0E
05
03
04
0$
0&
0%
#320000
0!
1#
01
10
1H
0G
xS
#360000
1!
11
1G
xP
xW
xF
xR
x5
x$
#400000
0!
0#
01
00
0H
0G
0S
0R
#440000
1!
11
1G
0P
0W
0F
05
0$
#480000
0!
1#
01
10
1H
0G
xS
#520000
1!
11
1G
xP
xW
xF
xR
x5
x$
#560000
0!
01
0G
#600000
1!
11
1G
xQ
xV
xD
xE
x3
x4
x&
x%
#640000
0!
01
0G
#680000
1!
11
1G
#720000
0!
1"
01
12
1I
0G
0X
0L
0O
0P
0Q
1J
0V
1M
0W
1U
1T
0F
0D
0E
1S
0N
0R
0K
05
03
04
0$
0&
0%
#760000
1!
11
1G
#800000
0!
0"
0#
01
02
00
0H
0I
0G
1X
0S
#840000
1!
11
1G
#880000
0!
1#
01
10
1H
0G
1S
#920000
1!
11
1G
1P
1N
1W
1F
1R
15
1$
#960000
0!
0#
01
00
0H
0G
0S
0R
