ECE 201/Latches, Flip-Flops, and Registers/Lab8.4/simulation/qsim/part4.msim.vcd
$comment
	File created using the following command:
		vcd file part4.msim.vcd -direction
$end
$date
	Mon Nov 04 00:23:03 2019
$end
$version
	ModelSim Version 10.5b
$end
$timescale
	1ps
$end

$scope module part4_vhd_vec_tst $end
$var wire 1 ! Clk $end
$var wire 1 " D $end
$var wire 1 # Qa $end
$var wire 1 $ Qb $end
$var wire 1 % Qc $end

$scope module i1 $end
$var wire 1 & gnd $end
$var wire 1 ' vcc $end
$var wire 1 ( unknown $end
$var wire 1 ) devoe $end
$var wire 1 * devclrn $end
$var wire 1 + devpor $end
$var wire 1 , ww_devoe $end
$var wire 1 - ww_devclrn $end
$var wire 1 . ww_devpor $end
$var wire 1 / ww_D $end
$var wire 1 0 ww_Clk $end
$var wire 1 1 ww_Qa $end
$var wire 1 2 ww_Qb $end
$var wire 1 3 ww_Qc $end
$var wire 1 4 \~QUARTUS_CREATED_ADC1~_CHSEL_bus\ [4] $end
$var wire 1 5 \~QUARTUS_CREATED_ADC1~_CHSEL_bus\ [3] $end
$var wire 1 6 \~QUARTUS_CREATED_ADC1~_CHSEL_bus\ [2] $end
$var wire 1 7 \~QUARTUS_CREATED_ADC1~_CHSEL_bus\ [1] $end
$var wire 1 8 \~QUARTUS_CREATED_ADC1~_CHSEL_bus\ [0] $end
$var wire 1 9 \~QUARTUS_CREATED_ADC2~_CHSEL_bus\ [4] $end
$var wire 1 : \~QUARTUS_CREATED_ADC2~_CHSEL_bus\ [3] $end
$var wire 1 ; \~QUARTUS_CREATED_ADC2~_CHSEL_bus\ [2] $end
$var wire 1 < \~QUARTUS_CREATED_ADC2~_CHSEL_bus\ [1] $end
$var wire 1 = \~QUARTUS_CREATED_ADC2~_CHSEL_bus\ [0] $end
$var wire 1 > \Clk~inputclkctrl_INCLK_bus\ [3] $end
$var wire 1 ? \Clk~inputclkctrl_INCLK_bus\ [2] $end
$var wire 1 @ \Clk~inputclkctrl_INCLK_bus\ [1] $end
$var wire 1 A \Clk~inputclkctrl_INCLK_bus\ [0] $end
$var wire 1 B \~QUARTUS_CREATED_GND~I_combout\ $end
$var wire 1 C \~QUARTUS_CREATED_UNVM~~busy\ $end
$var wire 1 D \~QUARTUS_CREATED_ADC1~~eoc\ $end
$var wire 1 E \~QUARTUS_CREATED_ADC2~~eoc\ $end
$var wire 1 F \Qa~output_o\ $end
$var wire 1 G \Qb~output_o\ $end
$var wire 1 H \Qc~output_o\ $end
$var wire 1 I \D~input_o\ $end
$var wire 1 J \Clk~input_o\ $end
$var wire 1 K \Clk~inputclkctrl_outclk\ $end
$var wire 1 L \Qa$latch~combout\ $end
$var wire 1 M \posM~combout\ $end
$var wire 1 N \Qb$latch~combout\ $end
$var wire 1 O \Qc$latch~combout\ $end
$upscope $end
$upscope $end
$enddefinitions $end
#0
$dumpvars
0!
0"
x#
x$
x%
0&
1'
x(
1)
1*
1+
1,
1-
1.
0/
00
x1
x2
x3
0B
zC
zD
zE
xF
xG
xH
0I
0J
0K
xL
0M
xN
xO
1>
1?
1@
0A
04
05
06
07
08
09
0:
0;
0<
0=
$end
#60000
1"
1/
1I
1M
#80000
1!
10
1J
1A
1K
1L
1N
1G
1F
12
11
1$
1#
#120000
0"
0/
0I
0L
0F
01
0#
#140000
1"
1/
1I
1L
1F
11
1#
#200000
0"
0/
0I
0L
0F
01
0#
#240000
0!
00
0J
0A
0K
0M
0O
0H
03
0%
#260000
1"
1/
1I
1M
#320000
0"
0/
0I
0M
#340000
1"
1/
1I
1M
#380000
0"
0/
0I
0M
#400000
1!
10
1J
1A
1K
0N
0G
02
0$
#420000
1"
1/
1I
1L
1F
11
1#
#460000
0"
0/
0I
0L
0F
01
0#
#480000
1"
1/
1I
1L
1F
11
1#
#560000
0!
00
0J
0A
0K
1M
1O
1H
13
1%
#600000
0"
0/
0I
0M
