ECE 201/Latches, Flip-Flops, and Registers/Lab8.3/simulation/qsim/part3.msim.vcd
$comment
	File created using the following command:
		vcd file part3.msim.vcd -direction
$end
$date
	Sun Nov 03 23:42:20 2019
$end
$version
	ModelSim Version 10.5b
$end
$timescale
	1ps
$end

$scope module part3_vhd_vec_tst $end
$var wire 1 ! Clk $end
$var wire 1 " D $end
$var wire 1 # Q $end

$scope module i1 $end
$var wire 1 $ gnd $end
$var wire 1 % vcc $end
$var wire 1 & unknown $end
$var wire 1 ' devoe $end
$var wire 1 ( devclrn $end
$var wire 1 ) devpor $end
$var wire 1 * ww_devoe $end
$var wire 1 + ww_devclrn $end
$var wire 1 , ww_devpor $end
$var wire 1 - ww_Clk $end
$var wire 1 . ww_D $end
$var wire 1 / ww_Q $end
$var wire 1 0 \~QUARTUS_CREATED_ADC1~_CHSEL_bus\ [4] $end
$var wire 1 1 \~QUARTUS_CREATED_ADC1~_CHSEL_bus\ [3] $end
$var wire 1 2 \~QUARTUS_CREATED_ADC1~_CHSEL_bus\ [2] $end
$var wire 1 3 \~QUARTUS_CREATED_ADC1~_CHSEL_bus\ [1] $end
$var wire 1 4 \~QUARTUS_CREATED_ADC1~_CHSEL_bus\ [0] $end
$var wire 1 5 \~QUARTUS_CREATED_ADC2~_CHSEL_bus\ [4] $end
$var wire 1 6 \~QUARTUS_CREATED_ADC2~_CHSEL_bus\ [3] $end
$var wire 1 7 \~QUARTUS_CREATED_ADC2~_CHSEL_bus\ [2] $end
$var wire 1 8 \~QUARTUS_CREATED_ADC2~_CHSEL_bus\ [1] $end
$var wire 1 9 \~QUARTUS_CREATED_ADC2~_CHSEL_bus\ [0] $end
$var wire 1 : \~QUARTUS_CREATED_GND~I_combout\ $end
$var wire 1 ; \~QUARTUS_CREATED_UNVM~~busy\ $end
$var wire 1 < \~QUARTUS_CREATED_ADC1~~eoc\ $end
$var wire 1 = \~QUARTUS_CREATED_ADC2~~eoc\ $end
$var wire 1 > \Q~output_o\ $end
$var wire 1 ? \Clk~input_o\ $end
$var wire 1 @ \D~input_o\ $end
$var wire 1 A \GDLm|S_g~combout\ $end
$var wire 1 B \GDLm|R_g~combout\ $end
$var wire 1 C \GDLm|Qb~combout\ $end
$var wire 1 D \GDLm|Qa~combout\ $end
$var wire 1 E \GDLs|S_g~combout\ $end
$var wire 1 F \GDLs|R_g~combout\ $end
$var wire 1 G \GDLs|Qb~combout\ $end
$var wire 1 H \GDLs|Qa~combout\ $end
$upscope $end
$upscope $end
$enddefinitions $end
#0
$dumpvars
0!
1"
x#
0$
1%
x&
1'
1(
1)
1*
1+
1,
0-
1.
x/
0:
z;
z<
z=
x>
0?
1@
0A
1B
0C
1D
1E
1F
xG
xH
00
01
02
03
04
05
06
07
08
09
$end
#80000
0"
0.
0@
1A
0B
1C
0D
#160000
1"
1.
1@
0A
1B
1D
0C
#240000
1!
1-
1?
1A
0E
1H
1>
0G
1/
1#
#320000
0"
0.
0@
#400000
0!
0-
0?
0B
1E
1C
0D
#560000
1!
1-
1?
1B
0F
1G
0H
0>
0/
0#
#640000
0!
0-
0?
0B
1F
#720000
1"
1.
1@
0A
1B
1D
0C
#800000
1!
1-
1?
1A
0E
1H
1>
0G
1/
1#
#880000
0!
0-
0?
0A
1E
